-56 928
-184 -24 768
40 -24 912
104 -56 816
-992
992
992
-8 976
992
-992
992
-56 -48 -40 -32 -24 -16 728
-400 -392 -184
992
-96 -24 -32 -16 16 -56 -64 72 -80 -88 -56 -48 248
-80 -16 -80 -16 -80 -16 -80 -16 544
-152 832
-152 -144 -136 -128 -120 -112 152
-40 -48 56 -64 -320 -64 352
-104 -104 -104 -104 544
440 -80 456
